{
  "status": "success",
  "code": 200,
  "message": "Request processed successfully",
  "data": {
    "user": {
      "id": 123,
      "name": "John Doe",
      "email": "john@example.com",
      "roles": ["admin", "user"],
      "profile": {
        "avatar": "https://example.com/avatar.jpg",
        "bio": "Software developer",
        "location": "New York, USA",
        "social": {
          "twitter": "@johndoe",
          "github": "johndoe",
          "website": "https://johndoe.dev"
        }
      },
      "stats": {
        "login_count": 150,
        "last_login": "2023-03-08T10:30:00Z",
        "created_at": "2022-01-15T08:00:00Z"
      }
    },
    "metadata": {
      "page": 1,
      "limit": 20,
      "total": 100,
      "has_more": true
    }
  },
  "timestamp": "2023-03-08T15:45:00Z",
  "server": "Astra/1.0"
}
